[
  {
    "name": "app",
    "url": "/",
    "type": "load",
    "src": "components/application/index"
  },
  {
    "name": "app.setup-settings",
    "url": "setup-settings",
    "type": "load",
    "src": "components/setup-settings-state/index"
  },
  {
    "name": "app.test",
    "url": "test",
    "type": "load",
    "src": "components/test-state/index"
  }
]
